<svg width="52" height="52" viewBox="0 0 52 52" fill="none" xmlns="http://www.w3.org/2000/svg">
<path d="M18.9497 0C8.48909 0 0 8.49208 0 18.9564C0 29.4208 8.48909 37.9129 18.9497 37.9129C29.4104 37.9129 37.8995 29.4208 37.8995 18.9564C37.8995 8.47578 29.4104 0 18.9497 0ZM18.9497 34.5878C10.314 34.5878 3.30765 27.5789 3.30765 18.9401C3.30765 10.3013 10.314 3.2925 18.9497 3.2925C27.5855 3.2925 34.5918 10.3013 34.5918 18.9401C34.5918 27.5952 27.5855 34.5878 18.9497 34.5878Z" fill="#EF5136"/>
<path d="M49.6968 50.1539L50.8048 49.0456C51.8476 48.0024 52.1572 46.6169 51.5054 45.9649L48.5074 42.9658L37.7046 32.1592L32.8164 37.0491L46.6173 50.8548C47.269 51.5068 48.6703 51.1971 49.6968 50.1539Z" fill="#EF5136"/>
</svg>
